%YAML 1.1
%TAG !u! tag:unity3d.com,2011:
--- !u!114 &11400000
MonoBehaviour:
  m_ObjectHideFlags: 0
  m_CorrespondingSourceObject: {fileID: 0}
  m_PrefabInstance: {fileID: 0}
  m_PrefabAsset: {fileID: 0}
  m_GameObject: {fileID: 0}
  m_Enabled: 1
  m_EditorHideFlags: 0
  m_Script: {fileID: 11500000, guid: e651dbb3fbac04af2b8f5abf007ddc23, type: 3}
  m_Name: DefaultNetworkPrefabs
  m_EditorClassIdentifier: 
  IsDefault: 1
  List:
  - Override: 0
    Prefab: {fileID: 2579376704808338403, guid: 2b4cdbf276907e548b4c276f69b8f67b,
      type: 3}
    SourcePrefabToOverride: {fileID: 0}
    SourceHashToOverride: 0
    OverridingTargetPrefab: {fileID: 0}
  - Override: 0
    Prefab: {fileID: 3403928347604726323, guid: 269fa138e6a636a439eb36dd234d403b,
      type: 3}
    SourcePrefabToOverride: {fileID: 0}
    SourceHashToOverride: 0
    OverridingTargetPrefab: {fileID: 0}
  - Override: 0
    Prefab: {fileID: 7147038052729740004, guid: 5ee488275233ecc4b84117c76c8a9b46,
      type: 3}
    SourcePrefabToOverride: {fileID: 0}
    SourceHashToOverride: 0
    OverridingTargetPrefab: {fileID: 0}
  - Override: 0
    Prefab: {fileID: 7558399776059583530, guid: 1e7be1c58c63e1343a0373186974b33d,
      type: 3}
    SourcePrefabToOverride: {fileID: 0}
    SourceHashToOverride: 0
    OverridingTargetPrefab: {fileID: 0}
